^C:\USERS\ADMIN\SOURCE\REPOS\HW_POZDEEV_LESS14\HW_POZDEEV_LESS14\DEBUG\HW_POZDEEV_LESS14.OBJ
C:\USERS\ADMIN\SOURCE\REPOS\HW_POZDEEV_LESS14\DEBUG\HW_POZDEEV_LESS14.EXE
C:\USERS\ADMIN\SOURCE\REPOS\HW_POZDEEV_LESS14\DEBUG\HW_POZDEEV_LESS14.ILK
C:\USERS\ADMIN\SOURCE\REPOS\HW_POZDEEV_LESS14\DEBUG\HW_POZDEEV_LESS14.PDB
